<svg xmlns="http://www.w3.org/2000/svg" viewBox="0 0 64 64">
	<g>
		<path fill="#f59e0b" d="M32 23.36A8.64 8.64 0 1123.36 32 8.66 8.66 0 0132 23.36m0-3A11.64 11.64 0 1043.64 32 11.64 11.64 0 0032 20.36z"/>
		<path fill="none" stroke="#f59e0b" stroke-linecap="round" stroke-miterlimit="10" stroke-width="3" d="M32 15.71V9.5">
			<animate attributeName="stroke-dasharray" calcMode="spline" dur="5s" keySplines="0.5 0 0.5 1; 0.5 0 0.5 1" keyTimes="0; .5; 1" repeatCount="indefinite" values="3 6; 6 6; 3 6"/>
		</path>
		<path fill="none" stroke="#f59e0b" stroke-linecap="round" stroke-miterlimit="10" stroke-width="3" d="M32 48.29v6.21">
			<animate attributeName="stroke-dasharray" calcMode="spline" dur="5s" keySplines="0.5 0 0.5 1; 0.5 0 0.5 1" keyTimes="0; .5; 1" repeatCount="indefinite" values="3 6; 6 6; 3 6"/>
		</path>
		<path fill="none" stroke="#f59e0b" stroke-linecap="round" stroke-miterlimit="10" stroke-width="3" d="M43.52 20.48l4.39-4.39">
			<animate attributeName="stroke-dasharray" calcMode="spline" dur="5s" keySplines="0.5 0 0.5 1; 0.5 0 0.5 1" keyTimes="0; .5; 1" repeatCount="indefinite" values="3 6; 6 6; 3 6"/>
		</path>
		<path fill="none" stroke="#f59e0b" stroke-linecap="round" stroke-miterlimit="10" stroke-width="3" d="M20.48 43.52l-4.39 4.39">
			<animate attributeName="stroke-dasharray" calcMode="spline" dur="5s" keySplines="0.5 0 0.5 1; 0.5 0 0.5 1" keyTimes="0; .5; 1" repeatCount="indefinite" values="3 6; 6 6; 3 6"/>
		</path>
		<path fill="none" stroke="#f59e0b" stroke-linecap="round" stroke-miterlimit="10" stroke-width="3" d="M20.48 20.48l-4.39-4.39">
			<animate attributeName="stroke-dasharray" calcMode="spline" dur="5s" keySplines="0.5 0 0.5 1; 0.5 0 0.5 1" keyTimes="0; .5; 1" repeatCount="indefinite" values="3 6; 6 6; 3 6"/>
		</path>
		<path fill="none" stroke="#f59e0b" stroke-linecap="round" stroke-miterlimit="10" stroke-width="3" d="M43.52 43.52l4.39 4.39">
			<animate attributeName="stroke-dasharray" calcMode="spline" dur="5s" keySplines="0.5 0 0.5 1; 0.5 0 0.5 1" keyTimes="0; .5; 1" repeatCount="indefinite" values="3 6; 6 6; 3 6"/>
		</path>
		<path fill="none" stroke="#f59e0b" stroke-linecap="round" stroke-miterlimit="10" stroke-width="3" d="M15.71 32H9.5">
			<animate attributeName="stroke-dasharray" calcMode="spline" dur="5s" keySplines="0.5 0 0.5 1; 0.5 0 0.5 1" keyTimes="0; .5; 1" repeatCount="indefinite" values="3 6; 6 6; 3 6"/>
		</path>
		<path fill="none" stroke="#f59e0b" stroke-linecap="round" stroke-miterlimit="10" stroke-width="3" d="M48.29 32h6.21">
			<animate attributeName="stroke-dasharray" calcMode="spline" dur="5s" keySplines="0.5 0 0.5 1; 0.5 0 0.5 1" keyTimes="0; .5; 1" repeatCount="indefinite" values="3 6; 6 6; 3 6"/>
		</path>
		<animateTransform attributeName="transform" dur="45s" from="0 32 32" repeatCount="indefinite" to="360 32 32" type="rotate"/>
	</g>
</svg>
